﻿
---------------------------------------------------------------------------------

          唯艾迪网址:http://www.weidea.net   主题交易市场 http://ymb.me

================================================================================-
  ╔---------------------------------------------------------------------------╗
  ┆                                                                           ┆
  ┆   高级商业 WordPress主题 joomla主题 magento主题 网站模板 免费分享下载平台 ┆
  ┆                                                                           ┆
  ╚---------------------------------------------------------------------------╝
================================================================================

                    您下载的文件来自于 唯艾迪 http://www.weidea.net

                               This file shared on

                           主题交易市场 http://ymb.me

               ╔------------------------------------------------------╗
               ┆                                                      ┆
               ┆   WordPress   Joomla    Magento    Site template     ┆
               ┆                                                      ┆
               ╚------------------------------------------------------╝

================================================================================

      Premium WordPress, joomla, magento Themes and Web Templates Free Download

================================================================================